{
  "version": 2,
  "rules": [
    {
      "description": "OrderApplication",
      "host": "*",
      "http_method": "*",
      "url_path": "/*",
      "fixed_target": 0,
      "rate": 1.0
    }
  ],
  "default": {
    "fixed_target": 1,
    "rate": 0.1
  }
}